{
  "tareas": [
   
    {
      "nombre": "Auth",
      "descripcion": "autenticacion",
      "fechacreacion": "2020-11-25",
      "estado": "incompleta",
      "id": 4
    },
    {
      "nombre": "Registro",
      "descripcion": "Registro de usuario",
      "fechacreacion": "2020-11-25",
      "estado": "incompleta",
      "id": 5
    }
  ]
}